{
  "feedback": [
    {
      "id": 1,
      "rating": 10,
      "text": "this is feedback item 1 comming from backend"
    },
    {
      "id": 2,
      "rating": 2,
      "text": "this is feedback item 2 comming from backend"
    },
    {
      "text": "k item 3 comming from backend",
      "rating": 2,
      "id": 3
    }
  ]
}